{
  "level": "info",
  "writers": [
    {
      "type": "console",
      "level": "warn"
    },
    {
      "type": "file",
      "level": "error",
      "params": {
        "filepath": "./errors.log"
      }
    }
  ],
  "hooks": [
    {
      "type": "graylog",
      "level": "info",
      "params": {
        "address": "udp://127.0.0.1:12201"
      }
    }
  ]
}